[
  {
    "label": "Calendar",
    "menu_id": "cal0",
    "target": "cal",
    "url": "/interface/main/main_info.php",
    "children": [],
    "requirement": 0,
    "acl_req": [
      "patients",
      "appt"
    ],
    "global_req_strict": [
      "!disable_calendar",
      "!ippf_specific"
    ]
  },
  {
    "label": "Flow Board",
    "menu_id": "pfb0",
    "target": "flb",
    "url": "/interface/patient_tracker/patient_tracker.php?skip_timeout_reset=1",
    "children": [],
    "requirement": 0,
    "acl_req": [
      "patients",
      "appt"
    ],
    "global_req_strict": [
      "!disable_pat_trkr",
      "!disable_calendar"
    ]
  },
  {
    "label": "Messages",
    "menu_id": "msg0",
    "target": "msg",
    "url": "/interface/main/messages/messages.php?form_active=1",
    "children": [],
    "requirement": 0,
    "acl_req": [
      "patients",
      "notes"
    ]
  },
  {
    "label": "Patient/Client",
    "menu_id": "patimg",
    "children": [
      {
        "label": "Patients",
        "menu_id": "fin0",
        "target": "fin",
        "url": "/interface/main/finder/dynamic_finder.php",
        "children": [],
        "requirement": 0,
        "acl_req": [
          "patients",
          "demo"
        ]
      },
      {
        "label": "New/Search",
        "menu_id": "new0",
        "target": "pat",
        "url": "/interface/new/new.php",
        "children": [],
        "requirement": 0,
        "acl_req": [
          "patients",
          "demo",
          "write",
          "addonly"
        ],
        "global_req": "full_new_patient_form"
      },
      {
        "label": "New",
        "menu_id": "new0",
        "target": "pat",
        "url": "/interface/new/new.php",
        "children": [],
        "requirement": 0,
        "acl_req": [
          "patients",
          "demo",
          "write",
          "addonly"
        ],
        "global_req": "!full_new_patient_form"
      },
      {
        "label": "Dashboard{{patient file}}",
        "menu_id": "dem1",
        "target": "pat",
        "url": "/interface/patient_file/summary/demographics.php",
        "children": [],
        "requirement": 1,
        "acl_req": [
          "patients",
          "demo"
        ]
      }
    ],
    "requirement": 0
  },
  {
    "label": "Fees",
    "menu_id": "feeimg",
    "children": [
      {
        "label": "Fee Sheet",
        "menu_id": "cod2",
        "target": "enc",
        "url": "/interface/patient_file/encounter/load_form.php?formname=fee_sheet",
        "children": [],
        "requirement": 2,
        "acl_req": [
          [
            "encounters",
            "coding",
            "write"
          ],
          [
            "encounters",
            "coding_a",
            "write"
          ]
        ]
      },
      {
        "label": "Charges",
        "menu_id": "cod1",
        "target": "enc",
        "url": "/interface/patient_file/encounter/encounter_bottom.php",
        "children": [],
        "requirement": 2,
        "acl_req": [
          "acct",
          "bill",
          "write"
        ],
        "global_req": "use_charges_panel"
      },
      {
        "label": "Payment",
        "menu_id": "pay1",
        "target": "enc",
        "url": "/interface/patient_file/front_payment.php",
        "children": [],
        "requirement": 1,
        "acl_req": [
          "acct",
          "bill",
          "write"
        ]
      },
      {
        "label": "Checkout",
        "menu_id": "bil1",
        "target": "enc",
        "url": "/interface/patient_file/pos_checkout.php?framed=1",
        "children": [],
        "requirement": 1,
        "acl_req": [
          "acct",
          "bill",
          "write"
        ]
      },
      {
        "label": "Billing",
        "menu_id": "bil0",
        "target": "bil",
        "url": "/interface/billing/billing_report.php",
        "children": [],
        "requirement": 0,
        "acl_req": [
          [
            "acct",
            "eob",
            "write"
          ],
          [
            "acct",
            "bill",
            "write"
          ]
        ],
        "global_req": "!simplified_demographics"
      },
      {
        "label": "Batch Payments",
        "menu_id": "npa0",
        "target": "pat",
        "url": "/interface/billing/new_payment.php",
        "children": [],
        "requirement": 0,
        "acl_req": [
          [
            "acct",
            "eob",
            "write"
          ],
          [
            "acct",
            "bill",
            "write"
          ]
        ],
        "global_req": "enable_batch_payment"
      },
      {
        "label": "Posting",
        "menu_id": "eob",
        "target": "bil",
        "url": "/interface/billing/sl_eob_search.php",
        "children": [],
        "requirement": 0,
        "global_req": "enable_posting",
        "acl_req": [
          "acct",
          "eob",
          "write"
        ]
      },
      {
        "label": "EDI History",
        "menu_id": "edi0",
        "target": "pat",
        "url": "/interface/billing/edih_view.php",
        "children": [],
        "requirement": 0,
        "acl_req": [
          "acct",
          "eob"
        ],
        "global_req": "enable_edihistory_in_left_menu"
      }
    ],
    "requirement": 0,
    "global_req": "enable_fees_in_left_menu"
  },
  {
    "label": "Inventory",
    "menu_id": "invimg",
    "children": [
      {
        "label": "Management",
        "menu_id": "adm0",
        "target": "adm",
        "url": "/interface/drugs/drug_inventory.php",
        "children": [],
        "requirement": 0,
        "acl_req": [
          "admin",
          "drugs"
        ]
      },
      {
        "label": "Destroyed",
        "menu_id": "adm0",
        "target": "adm",
        "url": "/interface/reports/destroyed_drugs_report.php",
        "children": [],
        "requirement": 0,
        "acl_req": [
          "admin",
          "drugs"
        ]
      }
    ],
    "requirement": 0,
    "global_req": "inhouse_pharmacy"
  },
  {
    "label": "New Crop",
    "menu_id": "feeimg",
    "children": [
      {
        "label": "e-Rx",
        "menu_id": "ncr0",
        "target": "pat",
        "url": "/interface/eRx.php",
        "children": [],
        "requirement": 1,
        "acl_req": [
          "patients",
          "rx"
        ]
      },
      {
        "label": "e-Rx Renewal",
        "menu_id": "ncr1",
        "target": "pat",
        "url": "/interface/eRx.php?page=status",
        "children": [],
        "requirement": 1,
        "acl_req": [
          "patients",
          "rx"
        ]
      },
      {
        "label": "e-Rx EPCS",
        "menu_id": "ncr2",
        "target": "pat",
        "url": "/interface/eRx.php?page=epcs-admin",
        "children": [],
        "requirement": 0,
        "acl_req": [
          "patients",
          "rx"
        ],
        "global_req": "newcrop_user_role_erxadmin"
      }
    ],
    "requirement": 1,
    "global_req_strict": [
      "erx_enable",
      "newcrop_user_role"
    ]
  },
  {
    "label": "Reports",
    "menu_id": "repimg",
    "children": [
      {
        "label": "Clients",
        "icon": "fa-caret-right",
        "children": [
          {
            "label": "List",
            "menu_id": "rep0",
            "target": "rep",
            "url": "/interface/reports/patient_list.php",
            "children": [],
            "requirement": 0,
            "acl_req": [
              "patients",
              "demo"
            ]
          },
          {
            "label": "Rx",
            "menu_id": "rep0",
            "target": "rep",
            "url": "/interface/reports/prescriptions_report.php",
            "children": [],
            "requirement": 0,
            "acl_req": [
              "patients",
              "rx"
            ],
            "global_req": "!disable_prescriptions"
          },
          {
            "label": "Patient List Creation",
            "menu_id": "rep0",
            "target": "rep",
            "url": "/interface/reports/patient_list_creation.php",
            "children": [],
            "requirement": 0,
            "acl_req": [
              "patients",
              "med"
            ]
          },
          {
            "label": "Clinical",
            "menu_id": "rep0",
            "target": "rep",
            "url": "/interface/reports/clinical_reports.php",
            "children": [],
            "requirement": 0,
            "acl_req": [
              "patients",
              "med"
            ]
          },
          {
            "label": "Immunization Registry",
            "menu_id": "rep0",
            "target": "rep",
            "url": "/interface/reports/immunization_report.php",
            "children": [],
            "requirement": 0,
            "acl_req": [
              "patients",
              "med"
            ]
          }
        ],
        "requirement": 0
      },
      {
        "label": "Visits",
        "icon": "fa-caret-right",
        "children": [
          {
            "label": "Superbill",
            "menu_id": "rep0",
            "target": "rep",
            "url": "/interface/reports/custom_report_range.php",
            "children": [],
            "requirement": 0,
            "acl_req": [
              "encounters",
              "coding_a"
            ],
            "global_req": "!ippf_specific"
          },
          {
            "label": "Eligibility",
            "menu_id": "rep0",
            "target": "rep",
            "url": "/interface/reports/edi_270.php",
            "children": [],
            "requirement": 0,
            "acl_req": [
              "patients",
              "demo"
            ]
          },
          {
            "label": "Eligibility Response",
            "menu_id": "rep0",
            "target": "rep",
            "url": "/interface/reports/edi_271.php",
            "children": [],
            "requirement": 0,
            "acl_req": [
              "patients",
              "demo"
            ]
          }
        ],
        "requirement": 0
      },
      {
        "label": "Financial",
        "icon": "fa-caret-right",
        "children": [
          {
            "label": "Sales",
            "menu_id": "rep0",
            "target": "rep",
            "url": "/interface/reports/sales_by_item.php",
            "children": [],
            "requirement": 0,
            "acl_req": [
              "acct",
              "rep_a"
            ]
          },
          {
            "label": "Cash Rec",
            "menu_id": "rep0",
            "target": "rep",
            "url": "/interface/billing/sl_receipts_report.php",
            "children": [],
            "requirement": 0,
            "acl_req": [
              "acct",
              "rep_a"
            ]
          },
          {
            "label": "Front Rec",
            "menu_id": "rep0",
            "target": "rep",
            "url": "/interface/reports/front_receipts_report.php",
            "children": [],
            "requirement": 0,
            "acl_req": [
              "acct",
              "rep_a"
            ]
          },
          {
            "label": "Pmt Method",
            "menu_id": "rep0",
            "target": "rep",
            "url": "/interface/reports/receipts_by_method_report.php",
            "children": [],
            "requirement": 0,
            "acl_req": [
              "acct",
              "rep_a"
            ]
          },
          {
            "label": "Collections",
            "menu_id": "rep0",
            "target": "rep",
            "url": "/interface/reports/collections_report.php",
            "children": [],
            "requirement": 0,
            "acl_req": [
              "acct",
              "rep_a"
            ]
          },
          {
            "label": "Pat Ledger",
            "menu_id": "rep0",
            "target": "rep",
            "url": "/interface/reports/pat_ledger.php?form=0",
            "children": [],
            "requirement": 0,
            "acl_req": [
              "acct",
              "rep_a"
            ]
          },
          {
            "label": "Financial Summary by Service Code",
            "menu_id": "rep0",
            "target": "rep",
            "url": "/interface/reports/svc_code_financial_report.php",
            "children": [],
            "requirement": 0,
            "acl_req": [
              "acct",
              "rep_a"
            ]
          }
        ],
        "requirement": 0
      },
      {
        "label": "Inventory",
        "icon": "fa-caret-right",
        "children": [
          {
            "label": "List",
            "url": "/interface/reports/inventory_list.php",
            "target": "rep",
            "children": [],
            "requirement": 0,
            "acl_req": [
              "admin",
              "drugs"
            ]
          },
          {
            "label": "Activity",
            "url": "/interface/reports/inventory_activity.php",
            "target": "rep",
            "children": [],
            "requirement": 0,
            "acl_req": [
              "admin",
              "drugs"
            ]
          },
          {
            "label": "Transactions",
            "url": "/interface/reports/inventory_transactions.php",
            "target": "rep",
            "children": [],
            "requirement": 0,
            "acl_req": [
              "admin",
              "drugs"
            ]
          }
        ],
        "requirement": 0,
        "global_req": "inhouse_pharmacy"
      },
      {
        "label": "Insurance",
        "icon": "fa-caret-right",
        "children": [
          {
            "label": "Distribution",
            "menu_id": "rep0",
            "target": "rep",
            "url": "/interface/reports/insurance_allocation_report.php",
            "children": [],
            "requirement": 0,
            "acl_req": [
              "acct",
              "rep_a"
            ]
          },
          {
            "label": "Indigents",
            "menu_id": "rep0",
            "target": "rep",
            "url": "/interface/billing/indigent_patients_report.php",
            "children": [],
            "requirement": 0,
            "acl_req": [
              "acct",
              "rep_a"
            ]
          },
          {
            "label": "Unique SP",
            "menu_id": "rep0",
            "target": "rep",
            "url": "/interface/reports/unique_seen_patients_report.php",
            "children": [],
            "requirement": 0,
            "acl_req": [
              "patients",
              "demo"
            ]
          }
        ],
        "requirement": 0,
        "global_req": "!simplified_demographics"
      },
      {
        "label": "Statistics",
        "icon": "fa-caret-right",
        "children": [
          {
            "label": "IPPF Stats",
            "menu_id": "rep0",
            "target": "rep",
            "url": "/interface/reports/ippf_statistics.php?t=i",
            "children": [],
            "requirement": 0,
            "acl_req": [
              "acct",
              "rep_a"
            ]
          },
          {
            "label": "GCAC Stats",
            "menu_id": "rep0",
            "target": "rep",
            "url": "/interface/reports/ippf_statistics.php?t=g",
            "children": [],
            "requirement": 0,
            "acl_req": [
              "acct",
              "rep_a"
            ]
          },
          {
            "label": "MA Stats",
            "menu_id": "rep0",
            "target": "rep",
            "url": "/interface/reports/ippf_statistics.php?t=m",
            "children": [],
            "requirement": 0,
            "acl_req": [
              "acct",
              "rep_a"
            ]
          },
          {
            "label": "CYP",
            "menu_id": "rep0",
            "target": "rep",
            "url": "/interface/reports/ippf_cyp_report.php",
            "children": [],
            "requirement": 0,
            "acl_req": [
              "acct",
              "rep_a"
            ]
          },
          {
            "label": "Daily Record",
            "menu_id": "rep0",
            "target": "rep",
            "url": "/interface/reports/ippf_daily.php",
            "children": [],
            "requirement": 0,
            "acl_req": [
              "acct",
              "rep_a"
            ]
          }
        ],
        "requirement": 0,
        "global_req": "ippf_specific"
      },
      {
        "label": "Blank Forms",
        "icon": "fa-caret-right",
        "children": [
          {
            "label": "Demographics",
            "url": "/interface/patient_file/summary/demographics_print.php",
            "target": "rep",
            "children": [],
            "requirement": 0
          },
          {
            "label": "Superbill/Fee Sheet",
            "url": "/interface/patient_file/printed_fee_sheet.php",
            "target": "rep",
            "children": [],
            "requirement": 0
          }
        ],
        "requirement": 0
      }
    ],
    "requirement": 0
  },
  {
    "label": "Miscellaneous",
    "menu_id": "misimg",
    "children": [
      {
        "label": "Patient Education",
        "menu_id": "ped0",
        "target": "msc",
        "url": "/interface/reports/patient_edu_web_lookup.php",
        "children": [],
        "requirement": 0
      },
      {
        "label": "Fax/Scan",
        "menu_id": "fax",
        "target": "msc",
        "url": "/interface/fax/faxq.php",
        "children": [],
        "requirement": 0,
        "acl_req": [
          "patients",
          "docs"
        ],
        "global_req": [
          "enable_hylafax",
          "enable_scanner"
        ]
      },
      {
        "label": "Addr Book",
        "menu_id": "adb0",
        "target": "msc",
        "url": "/interface/usergroup/addrbook_list.php",
        "children": [],
        "requirement": 0,
        "acl_req": [
          "admin",
          "practice"
        ]
      },
      {
        "label": "Order Catalog",
        "menu_id": "ort0",
        "target": "msc",
        "url": "/interface/orders/types.php",
        "children": [],
        "requirement": 0,
        "acl_req": [
          "admin",
          "practice"
        ]
      },
      {
        "label": "Chart Tracker",
        "menu_id": "cht0",
        "target": "msc",
        "url": "/custom/chart_tracker.php",
        "children": [],
        "requirement": 0,
        "acl_req": [
          "patients",
          "appt"
        ],
        "global_req": "!disable_chart_tracker"
      },
      {
        "label": "Ofc Notes",
        "menu_id": "ono0",
        "target": "msc",
        "url": "/interface/main/onotes/office_comments.php",
        "children": [],
        "requirement": 0,
        "acl_req": [
          "encounters",
          "notes"
        ]
      },
      {
        "label": "Configure Tracks",
        "menu_id": "con0",
        "target": "msc",
        "url": "/interface/forms/track_anything/create.php",
        "children": [],
        "requirement": 0,
        "global_req": "track_anything_state"
      },
      {
        "label": "Password",
        "menu_id": "pwd0",
        "target": "msc",
        "url": "/interface/usergroup/user_info.php",
        "children": [],
        "requirement": 0
      },
      {
        "label": "Preferences",
        "menu_id": "prf0",
        "target": "msc",
        "url": "/interface/super/edit_globals.php?mode=user",
        "children": [],
        "requirement": 0
      }
    ],
    "requirement": 0,
    "acl_req": [
      "patients",
      "docs"
    ]
  },
  {
    "label": "Popups",
    "menu_id": "popup",
    "children": [
      {
        "label": "Issues",
        "menu_id": "Popup:Issues",
        "url": "/interface/patient_file/problem_encounter.php",
        "target": "pop",
        "children": [],
        "requirement": 1,
        "acl_req": [
          "patients",
          "med"
        ],
        "global_req": "allow_issue_menu_link"
      },
      {
        "label": "Export",
        "menu_id": "Popup:Export",
        "url": "/custom/export_xml.php",
        "target": "pop",
        "children": [],
        "requirement": 1,
        "acl_req": [
          "patients",
          "demo"
        ],
        "global_req": "!ippf_specific"
      },
      {
        "label": "Import",
        "menu_id": "Popup:Import",
        "url": "/custom/import_xml.php",
        "target": "pop",
        "children": [],
        "requirement": 1,
        "acl_req": [
          "patients",
          "demo",
          "write"
        ],
        "global_req": "!ippf_specific"
      },
      {
        "label": "Appts",
        "menu_id": "Popup:Appts",
        "url": "/interface/reports/appointments_report.php?patient=",
        "target": "pop",
        "children": [],
        "requirement": 1,
        "acl_req": [
          "patients",
          "appt"
        ],
        "global_req": "!disable_calendar"
      },
      {
        "label": "Superbill",
        "menu_id": "Popup:Superbill",
        "url": "/interface/patient_file/printed_fee_sheet.php?fill=1",
        "target": "pop",
        "children": [],
        "requirement": 1,
        "acl_req": [
          "patients",
          "med"
        ]
      },
      {
        "label": "Payment",
        "menu_id": "Popup:Payment",
        "url": "/interface/patient_file/front_payment.php",
        "target": "pop",
        "children": [],
        "requirement": 1,
        "acl_req": [
          "acct",
          "bill",
          "write"
        ]
      },
      {
        "label": "Checkout",
        "menu_id": "Popup:Checkout",
        "url": "/interface/patient_file/pos_checkout.php",
        "target": "pop",
        "children": [],
        "requirement": 1,
        "acl_req": [
          "acct",
          "bill",
          "write"
        ],
        "global_req": "inhouse_pharmacy"
      },
      {
        "label": "Letter",
        "menu_id": "Popup:Letter",
        "url": "/interface/patient_file/letter.php",
        "target": "pop",
        "children": [],
        "requirement": 1,
        "acl_req": [
          "patients",
          "med"
        ]
      },
      {
        "label": "Chart Label",
        "menu_id": "Popup:Chart Label",
        "url": "/interface/patient_file/label.php",
        "target": "pop",
        "children": [],
        "requirement": 1,
        "acl_req": [
          "patients",
          "demo"
        ],
        "global_req": "chart_label_type"
      },
      {
        "label": "Barcode Label",
        "menu_id": "Popup:Barcode Label",
        "url": "/interface/patient_file/barcode_label.php",
        "target": "pop",
        "children": [],
        "requirement": 1,
        "acl_req": [
          "patients",
          "demo"
        ],
        "global_req": "barcode_label_type"
      },
      {
        "label": "Address Label",
        "menu_id": "Popup:Address Label",
        "url": "/interface/patient_file/addr_label.php",
        "target": "pop",
        "children": [],
        "requirement": 1,
        "acl_req": [
          "patients",
          "demo"
        ],
        "global_req": "addr_label_type"
      }
    ],
    "requirement": 0
  },
  {
    "label": "About",
    "menu_id": "abo0",
    "target": "msc",
    "url": "/interface/main/about_page.php",
    "children": [],
    "requirement": 0
  }
]
